…
# A tibble: 3 × 2
  dest  avg_delay
  <chr>     <dbl>
1 PSP       -2.94
2 STT        3.74
3 SRQ        4.43

```{r}
flights |> filter(origin == "JFK") |> group_by(dest) |> summarize(avg_delay=mean(dep_delay, na.rm=TRUE)) |> arrange(desc(avg_delay)) |> slice_min(avg_delay, n=-3)
```

# A tibble: 67 × 2
   dest  avg_delay
   <chr>     <dbl>
 1 PSP       -2.94
 2 STT        3.74
 3 SRQ        4.43
 4 HNL        4.90
 5 JAC        5   
 6 ACK        6.46
 7 BQN        6.67
 8 BHM        7   
 9 MVY        7.05
10 SLC        7.73
# ℹ 57 more rows
# ℹ Use `print(n = ...)` to see more rows
…
